﻿{
    "tunnels": [
        {
            "name": "command_line (http)",
            "uri": "/api/tunnels/command_line+%28http%29",
            "public_url": "http://f554f332.ngrok.io",
            "proto": "http",
            "config": {
                "addr": "localhost:5000",
                "inspect": true
            },
            "metrics": {
                "conns": {
                    "count": 0,
                    "gauge": 0,
                    "rate1": 0,
                    "rate5": 0,
                    "rate15": 0,
                    "p50": 0,
                    "p90": 0,
                    "p95": 0,
                    "p99": 0
                },
              "http": {
                "count": 0,
                "rate1": 0,
                "rate5": 0,
                "rate15": 0,
                "p50": 0,
                "p90": 0,
                "p95": 0,
                "p99": 0
              }
            }
        },
        {
            "name": "command_line",
            "uri": "/api/tunnels/command_line",
            "public_url": "https://f554f332.ngrok.io",
            "proto": "https",
            "config": {
                "addr": "localhost:5000",
                "inspect": true
            },
            "metrics": {
                "conns": {
                    "count": 0,
                    "gauge": 0,
                    "rate1": 0,
                    "rate5": 0,
                    "rate15": 0,
                    "p50": 0,
                    "p90": 0,
                    "p95": 0,
                    "p99": 0
                },
                "http": {
                    "count": 0,
                    "rate1": 0,
                    "rate5": 0,
                    "rate15": 0,
                    "p50": 0,
                    "p90": 0,
                    "p95": 0,
                    "p99": 0
                }
            }
        }
    ],
    "uri": "/api/tunnels"
}